Step by step example using individual functions • ROMOPMappingTools
…
We can see on the botton that the ICD10fi and UNITfi vocabularies
have been added to the VOCABULARY table.

dplyr::tbl(connection, "source_to_concept_map_extended") |>
  dplyr::collect()
#> # A tibble: 4,122 × 12
#>    source_code source_concept_id source_vocabulary_id source_code_description   
#>    <chr>                   <dbl> <chr>                <chr>                     
#>  1 A01.0+G01          2000500101 ICD10fi              Meningitis (in) typhoid f…
#>  2 A01.0+I39.8        2000500102 ICD10fi              Endocarditis in typhoid f…
#>  3 A01.0+J17.0        2000500103 ICD10fi              Typhoid fever pneumonia   
#>  4 A01.4+M01.3        2000500104 ICD10fi              Arthritis in typhoid or p…
#>  5 A02.2+G01          2000500105 ICD10fi              Salmonella meningitis     
#>  6 A02.2+H22.0        2000500106 ICD10fi              Salmonella iridocyclitis  
#>  7 A02.2+H22.0        2000500106 ICD10fi              Salmonella iridocyclitis  
#>  8 A02.2+J17.0        2000500107 ICD10fi              Salmonella pneumonia      
#>  9 A02.2+M01.3        2000500108 ICD10fi              Salmonella arthritis      
#> 10 A02.2+M90.2        2000500109 ICD10fi              Salmonella osteomyelitis  
#> # ℹ 4,112 more rows
#> # ℹ 8 more variables: target_concept_id <dbl>, target_vocabulary_id <chr>,
#> #   valid_start_date <date>, valid_end_date <date>, invalid_reason <chr>,
#> #   source_concept_class <chr>, source_domain <chr>,
#> #   source_parents_concept_ids <chr>
…
This populates the CONCEPT table:

dplyr::tbl(connection, "CONCEPT") |>
  dplyr::filter(vocabulary_id == "ICD10fi") |>
  dplyr::collect()
#> Note: method with signature 'DBIConnection#SQL' chosen for function 'dbQuoteIdentifier',
#>  target signature 'DatabaseConnectorDbiConnection#SQL'.
#>  "DatabaseConnectorConnection#character" would also be valid
#> # A tibble: 3,505 × 10
#>    concept_id concept_name              domain_id vocabulary_id concept_class_id
#>         <dbl> <chr>                     <chr>     <chr>         <chr>           
#>  1 2000500101 Meningitis (in) typhoid … Condition ICD10fi       ICD10fi Hierarc…
#>  2 2000500102 Endocarditis in typhoid … Condition ICD10fi       ICD10fi Hierarc…
#>  3 2000500103 Typhoid fever pneumonia   Condition ICD10fi       ICD10fi Hierarc…
#>  4 2000500104 Arthritis in typhoid or … Condition ICD10fi       ICD10fi Hierarc…
#>  5 2000500105 Salmonella meningitis     Condition ICD10fi       ICD10fi Hierarc…
#>  6 2000500106 Salmonella iridocyclitis  Condition ICD10fi       ICD10fi Hierarc…
#>  7 2000500107 Salmonella pneumonia      Condition ICD10fi       ICD10fi Hierarc…
#>  8 2000500108 Salmonella arthritis      Condition ICD10fi       ICD10fi Hierarc…
#>  9 2000500109 Salmonella osteomyelitis  Condition ICD10fi       ICD10fi Hierarc…
#> 10 2000500110 Salmonella renal tubulo-… Conditio… ICD10fi       ICD10fi Hierarc…
#> # ℹ 3,495 more rows
#> # ℹ 5 more variables: standard_concept <chr>, concept_code <chr>,
#> #   valid_start_date <date>, valid_end_date <date>, invalid_reason <chr>

The CONCEPT_RELATIONSHIP table with

the ‘Maps to’ relationships:

dplyr::tbl(connection, "CONCEPT_RELATIONSHIP") |>
  dplyr::filter(relationship_id == "Maps to") |>
  dplyr::filter(concept_id_1 > 2000500101) |>
  dplyr::collect()
#> # A tibble: 4,089 × 6
#>    concept_id_1 concept_id_2 relationship_id valid_start_date valid_end_date
#>           <dbl>        <dbl> <chr>           <date>           <date>        
#>  1   2000500104        80316 Maps to         1900-01-01       2099-12-31    
#>  2   2000500111     44811663 Maps to         1900-01-01       2099-12-31    
#>  3   2000500116       440937 Maps to         1900-01-01       2099-12-31    
#>  4   2000500119       434557 Maps to         1900-01-01       2099-12-31    
#>  5   2000500120       434557 Maps to         1900-01-01       2099-12-31    
#>  6   2000500123        81496 Maps to         1900-01-01       2099-12-31    
#>  7   2000500125        80626 Maps to         1900-01-01       2099-12-31    
#>  8   2000500132      4056331 Maps to         1900-01-01       2099-12-31    
#>  9   2000500142       201779 Maps to         1900-01-01       2099-12-31    
#> 10   2000500144       141777 Maps to         1900-01-01       2099-12-31    
#> # ℹ 4,079 more rows
#> # ℹ 1 more variable: invalid_reason <chr>

the ‘Maps from’ relationships:

dplyr::tbl(connection, "CONCEPT_RELATIONSHIP") |>
  dplyr::filter(relationship_id == "Mapped from") |>
  dplyr::filter(concept_id_2 > 2000500101) |>
  dplyr::collect()
#> # A tibble: 4,089 × 6
#>    concept_id_1 concept_id_2 relationship_id valid_start_date valid_end_date
#>           <dbl>        <dbl> <chr>           <date>           <date>        
#>  1       437772   2000500105 Mapped from     1900-01-01       2099-12-31    
#>  2      4109415   2000500106 Mapped from     1900-01-01       2099-12-31    
#>  3       258333   2000500107 Mapped from     1900-01-01       2099-12-31    
#>  4       373684   2000500113 Mapped from     1900-01-01       2099-12-31    
#>  5       434557   2000500120 Mapped from     1900-01-01       2099-12-31    
#>  6      4224748   2000500129 Mapped from     1900-01-01       2099-12-31    
#>  7      4056331   2000500132 Mapped from     1900-01-01       2099-12-31    
#>  8       196019   2000500135 Mapped from     1900-01-01       2099-12-31    
#>  9      4282614   2000500145 Mapped from     1900-01-01       2099-12-31    
#> 10      4203012   2000500146 Mapped from     1900-01-01       2099-12-31    
#> # ℹ 4,079 more rows
#> # ℹ 1 more variable: invalid_reason <chr>

And if the columns sourceConceptCode and
sourceConceptVocabularyId are present in the STCM table,
they will be used to populate the CONCEPT_RELATIONSHIP table with

the ‘Is a’ relationships:

dplyr::tbl(connection, "CONCEPT_RELATIONSHIP") |>
  dplyr::filter(relationship_id == "Is a") |>
  dplyr::filter(concept_id_1 > 2000500101) |>
  dplyr::collect()
#> # A tibble: 119 × 6
#>    concept_id_1 concept_id_2 relationship_id valid_start_date valid_end_date
#>           <dbl>        <dbl> <chr>           <date>           <date>        
#>  1   2000500209   2000500210 Is a            1900-01-01       2099-12-31    
#>  2   2000500246   2000500254 Is a            1900-01-01       2099-12-31    
#>  3   2000500246   2000500256 Is a            1900-01-01       2099-12-31    
#>  4   2000500246   2000500257 Is a            1900-01-01       2099-12-31    
#>  5   2000500313   2000500314 Is a            1900-01-01       2099-12-31    
#>  6   2000500329   2000500330 Is a            1900-01-01       2099-12-31    
#>  7   2000500470   2000500468 Is a            1900-01-01       2099-12-31    
#>  8   2000501535   2000501537 Is a            1900-01-01       2099-12-31    
#>  9   2000501572   2000501573 Is a            1900-01-01       2099-12-31    
#> 10   2000501632   2000501631 Is a            1900-01-01       2099-12-31    
#> # ℹ 109 more rows
#> # ℹ 1 more variable: invalid_reason <chr>

the Subsumes relationships:

dplyr::tbl(connection, "CONCEPT_RELATIONSHIP") |>
  dplyr::filter(relationship_id == "Subsumes") |>
  dplyr::filter(concept_id_1 > 2000500101) |>
  dplyr::collect()
#> # A tibble: 5,451 × 6
#>    concept_id_1 concept_id_2 relationship_id valid_start_date valid_end_date
#>           <dbl>        <dbl> <chr>           <date>           <date>        
#>  1   2000500102     45576225 Subsumes        1900-01-01       2099-12-31    
#>  2   2000500103     45576225 Subsumes        1900-01-01       2099-12-31    
#>  3   2000500106     45532807 Subsumes        1900-01-01       2099-12-31    
#>  4   2000500107     45532807 Subsumes        1900-01-01       2099-12-31    
#>  5   2000500108     45532807 Subsumes        1900-01-01       2099-12-31    
#>  6   2000500111     45532809 Subsumes        1900-01-01       2099-12-31    
#>  7   2000500113     45532812 Subsumes        1900-01-01       2099-12-31    
#>  8   2000500129     45755302 Subsumes        1900-01-01       2099-12-31    
#>  9   2000500133     45755302 Subsumes        1900-01-01       2099-12-31    
#> 10   2000500136     45755302 Subsumes        1900-01-01       2099-12-31    
#> # ℹ 5,441 more rows
#> # ℹ 1 more variable: invalid_reason <chr>
…
