…
We can see on the botton that the ICD10fi and UNITfi vocabularies have
been added to the VOCABULARY table.

``` r
dplyr::tbl(connection, "source_to_concept_map_extended") |>
  dplyr::collect()
#> # A tibble: 4,122 × 12
#>    source_code source_concept_id source_vocabulary_id source_code_description   
#>    <chr>                   <int> <chr>                <chr>                     
#>  1 A01.0+G01          2000500101 ICD10fi              Meningitis (in) typhoid f…
#>  2 A01.0+I39.8        2000500102 ICD10fi              Endocarditis in typhoid f…
#>  3 A01.0+J17.0        2000500103 ICD10fi              Typhoid fever pneumonia   
#>  4 A01.4+M01.3        2000500104 ICD10fi              Arthritis in typhoid or p…
#>  5 A02.2+G01          2000500105 ICD10fi              Salmonella meningitis     
#>  6 A02.2+H22.0        2000500106 ICD10fi              Salmonella iridocyclitis  
#>  7 A02.2+H22.0        2000500106 ICD10fi              Salmonella iridocyclitis  
#>  8 A02.2+J17.0        2000500107 ICD10fi              Salmonella pneumonia      
#>  9 A02.2+M01.3        2000500108 ICD10fi              Salmonella arthritis      
#> 10 A02.2+M90.2        2000500109 ICD10fi              Salmonella osteomyelitis  
#> # ℹ 4,112 more rows
#> # ℹ 8 more variables: target_concept_id <int>, target_vocabulary_id <chr>,
#> #   valid_start_date <date>, valid_end_date <date>, invalid_reason <chr>,
#> #   source_concept_class <chr>, source_domain <chr>,
#> #   source_parents_concept_ids <chr>
```
…
This populates the CONCEPT table:

``` r
dplyr::tbl(connection, "CONCEPT") |>
  dplyr::filter(vocabulary_id == "ICD10fi") |>
  dplyr::collect()
#> Note: method with signature 'DBIConnection#SQL' chosen for function 'dbQuoteIdentifier',
#>  target signature 'DatabaseConnectorDbiConnection#SQL'.
#>  "DatabaseConnectorConnection#character" would also be valid
#> # A tibble: 3,505 × 10
#>    concept_id concept_name              domain_id vocabulary_id concept_class_id
#>         <int> <chr>                     <chr>     <chr>         <chr>           
#>  1 2000500101 Meningitis (in) typhoid … Condition ICD10fi       ICD10fi Hierarc…
#>  2 2000500102 Endocarditis in typhoid … Condition ICD10fi       ICD10fi Hierarc…
#>  3 2000500103 Typhoid fever pneumonia   Condition ICD10fi       ICD10fi Hierarc…
#>  4 2000500104 Arthritis in typhoid or … Condition ICD10fi       ICD10fi Hierarc…
#>  5 2000500105 Salmonella meningitis     Condition ICD10fi       ICD10fi Hierarc…
#>  6 2000500106 Salmonella iridocyclitis  Condition ICD10fi       ICD10fi Hierarc…
#>  7 2000500107 Salmonella pneumonia      Condition ICD10fi       ICD10fi Hierarc…
#>  8 2000500108 Salmonella arthritis      Condition ICD10fi       ICD10fi Hierarc…
#>  9 2000500109 Salmonella osteomyelitis  Condition ICD10fi       ICD10fi Hierarc…
#> 10 2000500110 Salmonella renal tubulo-… Conditio… ICD10fi       ICD10fi Hierarc…
#> # ℹ 3,495 more rows
#> # ℹ 5 more variables: standard_concept <chr>, concept_code <chr>,
#> #   valid_start_date <date>, valid_end_date <date>, invalid_reason <chr>
```

The CONCEPT_RELATIONSHIP table with

- the ‘Maps to’ relationships:

``` r
dplyr::tbl(connection, "CONCEPT_RELATIONSHIP") |>
  dplyr::filter(relationship_id == "Maps to") |>
  dplyr::filter(concept_id_1 > 2000500101) |>
  dplyr::collect()
#> # A tibble: 4,089 × 6
#>    concept_id_1 concept_id_2 relationship_id valid_start_date valid_end_date
#>           <int>        <int> <chr>           <date>           <date>        
#>  1   2000500104        80316 Maps to         1900-01-01       2099-12-31    
#>  2   2000500111     44811663 Maps to         1900-01-01       2099-12-31    
#>  3   2000500116       440937 Maps to         1900-01-01       2099-12-31    
#>  4   2000500119       434557 Maps to         1900-01-01       2099-12-31    
#>  5   2000500120       434557 Maps to         1900-01-01       2099-12-31    
#>  6   2000500123        81496 Maps to         1900-01-01       2099-12-31    
#>  7   2000500125        80626 Maps to         1900-01-01       2099-12-31    
#>  8   2000500132      4056331 Maps to         1900-01-01       2099-12-31    
#>  9   2000500142       201779 Maps to         1900-01-01       2099-12-31    
#> 10   2000500144       141777 Maps to         1900-01-01       2099-12-31    
#> # ℹ 4,079 more rows
#> # ℹ 1 more variable: invalid_reason <chr>
```

- the ‘Maps from’ relationships:

``` r
dplyr::tbl(connection, "CONCEPT_RELATIONSHIP") |>
  dplyr::filter(relationship_id == "Mapped from") |>
  dplyr::filter(concept_id_2 > 2000500101) |>
  dplyr::collect()
#> # A tibble: 4,089 × 6
#>    concept_id_1 concept_id_2 relationship_id valid_start_date valid_end_date
#>           <int>        <int> <chr>           <date>           <date>        
#>  1      4111401   2000500102 Mapped from     1900-01-01       2099-12-31    
#>  2      4166072   2000500103 Mapped from     1900-01-01       2099-12-31    
#>  3        80316   2000500108 Mapped from     1900-01-01       2099-12-31    
#>  4      4329572   2000500110 Mapped from     1900-01-01       2099-12-31    
#>  5       440937   2000500116 Mapped from     1900-01-01       2099-12-31    
#>  6      4150516   2000500117 Mapped from     1900-01-01       2099-12-31    
#>  7      4098475   2000500122 Mapped from     1900-01-01       2099-12-31    
#>  8        81496   2000500123 Mapped from     1900-01-01       2099-12-31    
#>  9     36713392   2000500133 Mapped from     1900-01-01       2099-12-31    
#> 10       194268   2000500134 Mapped from     1900-01-01       2099-12-31    
#> # ℹ 4,079 more rows
#> # ℹ 1 more variable: invalid_reason <chr>
```

And if the columns `sourceConceptCode` and `sourceConceptVocabularyId`
are present in the STCM table, they will be used to populate the
CONCEPT_RELATIONSHIP table with

- the ‘Is a’ relationships:

``` r
dplyr::tbl(connection, "CONCEPT_RELATIONSHIP") |>
  dplyr::filter(relationship_id == "Is a") |>
  dplyr::filter(concept_id_1 > 2000500101) |>
  dplyr::collect()
#> # A tibble: 5,353 × 6
#>    concept_id_1 concept_id_2 relationship_id valid_start_date valid_end_date
#>           <int>        <int> <chr>           <date>           <date>        
#>  1   2000500263     45600423 Is a            1900-01-01       2099-12-31    
#>  2   2000500264     45552189 Is a            1900-01-01       2099-12-31    
#>  3   2000500265     45552189 Is a            1900-01-01       2099-12-31    
#>  4   2000500277     45547422 Is a            1900-01-01       2099-12-31    
#>  5   2000500279     45547422 Is a            1900-01-01       2099-12-31    
#>  6   2000500281     45581128 Is a            1900-01-01       2099-12-31    
#>  7   2000500283     45581128 Is a            1900-01-01       2099-12-31    
#>  8   2000500288     45595594 Is a            1900-01-01       2099-12-31    
#>  9   2000500294     45595594 Is a            1900-01-01       2099-12-31    
#> 10   2000500296     45595594 Is a            1900-01-01       2099-12-31    
#> # ℹ 5,343 more rows
#> # ℹ 1 more variable: invalid_reason <chr>
```

- the `Subsumes` relationships:

``` r
dplyr::tbl(connection, "CONCEPT_RELATIONSHIP") |>
  dplyr::filter(relationship_id == "Subsumes") |>
  dplyr::filter(concept_id_1 > 2000500101) |>
  dplyr::collect()
#> # A tibble: 21 × 6
#>    concept_id_1 concept_id_2 relationship_id valid_start_date valid_end_date
#>           <int>        <int> <chr>           <date>           <date>        
#>  1   2000503725   2000503728 Subsumes        1997-08-24       2099-12-31    
#>  2   2000503769   2000503739 Subsumes        1900-01-01       2099-12-31    
#>  3   2000503769   2000503742 Subsumes        1900-01-01       2099-12-31    
#>  4   2000503769   2000503755 Subsumes        1900-01-01       2099-12-31    
#>  5   2000500469   2000500471 Subsumes        1900-01-01       2099-12-31    
#>  6   2000503725   2000503729 Subsumes        2010-01-01       2099-12-31    
#>  7   2000503769   2000503737 Subsumes        1900-01-01       2099-12-31    
#>  8   2000503769   2000503748 Subsumes        1900-01-01       2099-12-31    
#>  9   2000500469   2000500470 Subsumes        1900-01-01       2099-12-31    
#> 10   2000503725   2000503727 Subsumes        2010-01-01       2099-12-31    
#> # ℹ 11 more rows
#> # ℹ 1 more variable: invalid_reason <chr>
```
…
